R-Ladies São Paulo - Raspando a página do Studio Ghibli, na Wikipédia
…
Figura 5: Box da página do Studio Ghibli, no Wikipédia, referente ao elemento [[1]].

Para esse post, vamos nos limitar ao primeiro elemento ([[1]]), que corresponde ao box à direita na página https://pt.wikipedia.org/wiki/Hotaru_no_Haka (Figura 5), o qual contém informações bastante interessantes para uma análise sucinta do filme.

# primeiro cenario

tabela_ghibli <- tabela_ghibli |>   
  rvest::html_table(header = TRUE) # transformar dados HTML em tibble

tabela_ghibli
 #> # A tibble: 23 × 6
 #>    Ano   Título                    Diretor `Roteirista(s)` `Produtor(es)` Música
 #>    <chr> <chr>                     <chr>   <chr>           <chr>          <chr> 
 #>  1 1986  Tenkū no Shiro Rapyuta    Hayao … Hayao Miyazaki  Isao Takahata  Joe H…
 #>  2 1988  Hotaru no Haka            Isao T… Isao Takahata   Toru Hara      Michi…
 #>  3 1988  Tonari no Totoro          Hayao … Hayao Miyazaki  Toru Hara      Joe H…
 #>  4 1989  Majo no Takkyūbin         Hayao … Hayao Miyazaki  Hayao Miyazaki Joe H…
 #>  5 1991  Omoide Poro Poro          Isao T… Isao Takahata   Toshio Suzuki  Katsu…
 #>  6 1992  Kurenai no Buta           Hayao … Hayao Miyazaki  Toshio Suzuki  Joe H…
 #>  7 1993  Umi ga Kikoeru            Tomomi… Keiko Niwa      Toshio Suzuki  Shige…
 #>  8 1994  Heisei Tanuki Gassen Pon… Isao T… Isao Takahata   Toshio Suzuki  Shang…
 #>  9 1995  Mimi wo Sumaseba          Yoshif… Hayao Miyazaki  Toshio Suzuki  Yuji …
 #> 10 1997  Mononoke Hime             Hayao … Hayao Miyazaki  Toshio Suzuki  Joe H…
 #> # ℹ 13 more rows
…
tabela_ghibli
 #> # A tibble: 23 × 6
 #>    ano   titulo                       diretor         roteirista produtor musica
 #>    <chr> <chr>                        <chr>           <chr>      <chr>    <chr> 
 #>  1 1986  Tenkū no Shiro Rapyuta       Hayao Miyazaki  Hayao Miy… Isao Ta… Joe H…
 #>  2 1988  Hotaru no Haka               Isao Takahata   Isao Taka… Toru Ha… Michi…
 #>  3 1988  Tonari no Totoro             Hayao Miyazaki  Hayao Miy… Toru Ha… Joe H…
 #>  4 1989  Majo no Takkyūbin            Hayao Miyazaki  Hayao Miy… Hayao M… Joe H…
 #>  5 1991  Omoide Poro Poro             Isao Takahata   Isao Taka… Toshio … Katsu…
 #>  6 1992  Kurenai no Buta              Hayao Miyazaki  Hayao Miy… Toshio … Joe H…
 #>  7 1993  Umi ga Kikoeru               Tomomi Mochizu… Keiko Niwa Toshio … Shige…
 #>  8 1994  Heisei Tanuki Gassen Ponpoko Isao Takahata   Isao Taka… Toshio … Shang…
 #>  9 1995  Mimi wo Sumaseba             Yoshifumi Kondo Hayao Miy… Toshio … Yuji …
 #> 10 1997  Mononoke Hime                Hayao Miyazaki  Hayao Miy… Toshio … Joe H…
 #> # ℹ 13 more rows
…
