R-Ladies São Paulo - Título do post
…
censo_2020_raw$considerando_questoes_relacionadas_a_raca_voce_teria_alguma_sugestao_para_que_as_r_ladies_sejam_mais_inclusivas |>
  tibble::as_tibble() |>
  tidyr::drop_na() 

# A tibble: 58 × 1
   value                                                                        
   <chr>                                                                        
 1 Eu sinto falta de inclusão de trans.  Essas pessoas no geral estão fora do m…
 2 Divulgar R-Ladies em grupos que abordam a questão racial, tais como a Univer…
 3 Cotas                                                                        
 4 Buscar fazer parcerias e adotar estratégias de divulgação com foco em mulher…
 5 Priorizar pessoas de cor preta (em lista de espera, principalmente) e contem…
 6 Divulgar os cursos em grupos do Facebook de mulheres negras                  
 7 Atividades voltadas especificamente a determinada demografia racial(conteúdo…
 8 Acho que o difícil é conseguir vagas, é bastante concorrida as vagas para cu…
 9 Dar preferência nas inscrições pra minorias                                  
10 Não                                                                          
# ℹ 48 more rows
…
